[
  {
    "title": "Competetive Salary",
    "text": "Utilizing the data from market research and studies, we offer salary and benefits to compensate your efforts to grow the company."
  },
  {
    "title": "Latest Technology",
    "text": "Interested in learning and working in new technology, then this is the place, we are all about exploring, simplifying and adapting new technologies.
"
  },
  {
    "title": "Carrer Development",
    "text": "We succeed when you succeed, for that to happen we will invest in providing resources for learning and promote you when we see an opportunity that is fit for you."
  },
  {
    "title": "Rewards & Bonuses",
    "text": "We believe in appreciating your exceptional performance by rewards and bonuses."
  },
  {
    "title": "401K",
    "text": "We offer a 401(k) plan with tax advantages, generous company contributions, and a variety of investment funds."
  },
  {
    "title": "Paid Vacation",
    "text": "Employees accrue fifteen days of paid time off annually.  Additionally, we observe ten (10) paid holidays per calendar year."
  }
]
