[
  {
    "image": "home_appdev_desktop",
    "title": "Application Development",
    "text": "Whatever be your business needs, we have a solution for it. We provide complete suite of application development with wide range of core competencies..."
  },
  {
    "image": "home_busconsult_desktop",
    "title": "Business Consulting",
    "text": "We provide the resources needed to achieve and maximize quality outcomes for businesses. Our goal has always been on solving complex business problems by providing solutions that are..."
  },
  {
    "image": "home_itstuffing_desktop",
    "title": "IT Staffing",
    "text": "We provide the gateway for top notch candidates to be introduced to clients to fulfill the business requirements and ultimately contribute towards organizational success. Based on the project need..."
  }
]
