[
  {
    "title": "DevOps",
    "progress": 95
  },
  {
    "title": "Backend Development",
    "progress": 75
  },
  {
    "title": "Build and Release Management",
    "progress": 85
  },
  {
    "title": "Tools Administration",
    "progress": 90
  },
  {
    "title": "QA Automation",
    "progress": 88
  },
  {
    "title": "Big Data Analytics",
    "progress": 70
  }
]
