[
  {
    "abbr": "do",
    "title": "DevOps",
    "text": ""
  },
  {
    "abbr": "js",
    "title": "JavaScript",
    "text": "Whatever be your business needs, we have a solution for it. We provide complete suite of of core competencies."
  },
  {
    "abbr": "ma",
    "title": "Magento Engine",
    "text": "Whatever be your business needs, we have a solution for it. We provide complete suite of of core competencies."
  },
  {
    "abbr": "ht",
    "title": "HTML5",
    "text": "Whatever be your business needs, we have a solution for it. We provide complete suite of of core competencies."
  },
  {
    "abbr": "nj",
    "title": "Node JS",
    "text": "Whatever be your business needs, we have a solution for it. We provide complete suite of of core competencies."
  },
  {
    "abbr": "ma",
    "title": "Magento Engine",
    "text": "Whatever be your business needs, we have a solution for it. We provide complete suite of of core competencies."
  },
]
