<svg width="24" height="24" viewBox="0 0 240 240">
  <path stroke="none" d="M83 201c75 0 117-62 117-116v-6c8-6 15-13 20-21-7 3-15 5-24 6 9-5 15-13 18-22-7 4-16 8-26 10-7-8-18-13-30-13-22 0-41 18-41 41 0 3 1 6 1 9-34-2-64-18-84-43-4 6-6 13-6 21 0 14 8 27 19 34-7 0-13-2-19-5 0 20 14 37 33 41-4 1-7 1-11 1-3 0-5 0-8-1 6 17 21 29 39 29-14 11-32 17-51 17H20c18 11 40 18 63 18z"/>
</svg>
